<svg width="21" height="21" viewBox="0 0 21 21" fill="none" xmlns="http://www.w3.org/2000/svg">
<path d="M0 0H21V21H0V0ZM1.3125 1.3125V9.84375H9.84375V1.3125H1.3125ZM11.1562 1.3125V9.84375H19.6875V1.3125H11.1562ZM19.6875 11.1562H11.1562V19.6875H19.6875V11.1562ZM9.84375 19.6875V11.1562H1.3125V19.6875H9.84375Z" fill="url(#paint0_linear_1949_2732)"/>
<defs>
<linearGradient id="paint0_linear_1949_2732" x1="1.49776" y1="16.2287" x2="19.1259" y2="5.4242" gradientUnits="userSpaceOnUse">
<stop stop-color="#008CBD"/>
<stop offset="0.505208" stop-color="#008E8F"/>
<stop offset="1" stop-color="#008C64"/>
</linearGradient>
</defs>
</svg>
