<svg width="24" height="21" viewBox="0 0 24 21" fill="none" xmlns="http://www.w3.org/2000/svg">
<path d="M1.70783 18.1839C2.18162 18.175 2.6655 18.1301 3.10507 18.1051C9.11906 22.1833 13.6054 20.6224 16.3046 18.5982C21.6071 14.5228 24.2603 5.21619 22.6834 0.396056C22.6187 0.235837 22.5156 0.0971315 22.3481 0.0500637C22.1805 0.00299585 21.9844 0.0576517 21.8816 0.170803C19.7621 2.17713 16.0563 4.17681 12.4723 6.13328C7.04532 9.08912 1.93161 11.8489 1.54978 14.8857C1.47466 15.6587 1.65738 16.4331 2.12894 17.0756C1.57924 17.1019 0.993637 17.1182 0.454021 17.1086M3.62799 15.0876C3.97034 12.5821 9.04815 9.81218 14.0016 7.11712C17.3225 5.33855 19.6318 4.23026 21.9003 2.33682C21.0508 9.64252 18.4788 14.7037 14.5306 17.6812C12.299 19.4429 9.37202 19.9571 6.66549 19.158C5.59441 18.8571 5.64057 18.4559 4.63914 17.8841C11.7388 16.6958 17.9346 12.2903 19.4649 8.12996C19.5764 7.87078 19.4386 7.58026 19.1495 7.46031L19.1136 7.45022C18.8443 7.37457 18.5897 7.52255 18.4798 7.77575C16.6979 12.5561 9.80741 16.2629 3.55368 17.0368C2.97872 16.3717 3.54985 15.7565 3.62799 15.0876Z" fill="url(#paint0_linear_1949_3314)"/>
<defs>
<linearGradient id="paint0_linear_1949_3314" x1="21.9117" y1="5.46221" x2="2.71209" y2="9.03391" gradientUnits="userSpaceOnUse">
<stop stop-color="#008CBD"/>
<stop offset="0.505208" stop-color="#008E8F"/>
<stop offset="1" stop-color="#008C64"/>
</linearGradient>
</defs>
</svg>
