<svg width="24" height="22" viewBox="0 0 24 22" fill="none" xmlns="http://www.w3.org/2000/svg">
<path d="M12 8.09944L10.659 5.33208C10.326 4.64681 9.7485 3.66145 8.931 2.86481C8.127 2.08055 7.164 1.54688 6 1.54688C3.486 1.54688 1.5 3.59803 1.5 6.06375C1.5 7.93702 2.331 9.25959 4.302 11.2767C4.8075 11.7934 5.3835 12.3518 6.021 12.9675C7.683 14.5762 9.75 16.5779 12 19.254C14.25 16.5779 16.317 14.5762 17.979 12.9675C18.6165 12.3518 19.194 11.7918 19.698 11.2767C21.669 9.25959 22.5 7.93702 22.5 6.06375C22.5 3.59803 20.514 1.54688 18 1.54688C16.8345 1.54688 15.873 2.08055 15.069 2.86481C14.2515 3.66145 13.674 4.64681 13.341 5.33208L12 8.09944ZM12.588 20.9261C12.5158 21.0144 12.4257 21.0853 12.3242 21.1339C12.2226 21.1826 12.112 21.2078 12 21.2078C11.888 21.2078 11.7774 21.1826 11.6758 21.1339C11.5743 21.0853 11.4842 21.0144 11.412 20.9261C9.0105 17.984 6.837 15.8802 5.0475 14.1493C1.95 11.1499 0 9.26424 0 6.06375C0 2.71477 2.685 0 6 0C8.4 0 10.0785 1.62422 11.106 3.10613C11.496 3.67073 11.793 4.21369 12 4.64063C12.2595 4.10629 12.5584 3.59328 12.894 3.10613C13.9215 1.62267 15.6 0 18 0C21.315 0 24 2.71477 24 6.06375C24 9.26424 22.05 11.1499 18.9525 14.1493C17.163 15.8818 14.9895 17.9855 12.588 20.9246V20.9261Z" fill="url(#paint0_linear_1949_2644)"/>
<defs>
<linearGradient id="paint0_linear_1949_2644" x1="1.71172" y1="16.3893" x2="20.424" y2="3.41026" gradientUnits="userSpaceOnUse">
<stop stop-color="#008CBD"/>
<stop offset="0.505208" stop-color="#008E8F"/>
<stop offset="1" stop-color="#008C64"/>
</linearGradient>
</defs>
</svg>
