<svg width="33" height="56" viewBox="0 0 33 56" fill="none" xmlns="http://www.w3.org/2000/svg">
<path d="M0 39.124C0.587584 45.792 6.00686 50.524 14.2569 51.136V56H18.3977V51.136C27.41 50.42 33 45.384 33 37.936C33 31.576 29.2403 27.896 21.2642 25.824L18.3977 25.076V9.868C22.8523 10.308 25.8577 12.724 26.616 16.332H32.4521C31.7931 9.932 26.3381 5.34 18.3977 4.832V0H14.2569V4.932C6.55871 5.852 1.27442 10.82 1.27442 17.556C1.27442 23.372 5.1096 27.488 11.839 29.224L14.2608 29.872V45.996C9.69911 45.316 6.55871 42.796 5.80041 39.124H0ZM13.4628 23.78C9.32194 22.728 7.11056 20.48 7.11056 17.316C7.11056 13.54 9.90556 10.752 14.2569 10.004V23.984L13.4628 23.784V23.78ZM19.7794 31.268C24.889 32.56 27.1321 34.704 27.1321 38.344C27.1321 42.732 23.8527 45.656 18.3977 46.1V30.92L19.7794 31.264V31.268Z" fill="url(#paint0_linear_1949_2966)"/>
<defs>
<linearGradient id="paint0_linear_1949_2966" x1="2.35362" y1="43.2765" x2="36.0637" y2="31.1011" gradientUnits="userSpaceOnUse">
<stop stop-color="#008CBD"/>
<stop offset="0.505208" stop-color="#008E8F"/>
<stop offset="1" stop-color="#008C64"/>
</linearGradient>
</defs>
</svg>
