<svg width="33" height="45" viewBox="0 0 33 45" fill="none" xmlns="http://www.w3.org/2000/svg">
<path d="M20.7422 2.43L16.0481 0L11.3541 2.43L6.12844 3.22313L3.76032 7.94813L0 11.6606L0.860626 16.875L0 22.0894L3.76032 25.8019L6.12844 30.5269L11.3541 31.32L16.0481 33.75L20.7422 31.32L25.9678 30.5269L28.336 25.8019L32.0963 22.0894L31.2357 16.875L32.0963 11.6606L28.336 7.94813L25.9678 3.22313L20.7422 2.43ZM24.106 5.78532L26.0297 9.62438L29.0841 12.6394L28.3866 16.875L29.0841 21.1106L26.0297 24.1257L24.106 27.9647L19.8591 28.6088L16.0481 30.5832L12.2372 28.6088L7.99032 27.9647L6.06657 24.1257L3.01219 21.1106L3.7125 16.875L3.00938 12.6394L6.06657 9.62438L7.99032 5.78532L12.2372 5.14125L16.0481 3.16688L19.8619 5.14125L24.106 5.78532Z" fill="url(#paint0_linear_1741_390)"/>
<path d="M4.7981 33.1707V45L16.0481 42.1875L27.2981 45V33.1707L21.6225 34.0313L16.0481 36.9169L10.4737 34.0313L4.7981 33.1707Z" fill="url(#paint1_linear_1741_390)"/>
<defs>
<linearGradient id="paint0_linear_1741_390" x1="2.28916" y1="26.0819" x2="29.9541" y2="9.95653" gradientUnits="userSpaceOnUse">
<stop stop-color="#008CBD"/>
<stop offset="0.505208" stop-color="#008E8F"/>
<stop offset="1" stop-color="#008C64"/>
</linearGradient>
<linearGradient id="paint1_linear_1741_390" x1="6.40284" y1="42.3123" x2="17.4168" y2="29.4724" gradientUnits="userSpaceOnUse">
<stop stop-color="#008CBD"/>
<stop offset="0.505208" stop-color="#008E8F"/>
<stop offset="1" stop-color="#008C64"/>
</linearGradient>
</defs>
</svg>
