<svg width="57" height="57" viewBox="0 0 57 57" fill="none" xmlns="http://www.w3.org/2000/svg">
<path fill-rule="evenodd" clip-rule="evenodd" d="M39.1875 53.4375C42.9668 53.4375 46.5914 51.9362 49.2638 49.2638C51.9362 46.5914 53.4375 42.9668 53.4375 39.1875C53.4375 35.4082 51.9362 31.7836 49.2638 29.1112C46.5914 26.4388 42.9668 24.9375 39.1875 24.9375C35.4082 24.9375 31.7836 26.4388 29.1112 29.1112C26.4388 31.7836 24.9375 35.4082 24.9375 39.1875C24.9375 42.9668 26.4388 46.5914 29.1112 49.2638C31.7836 51.9362 35.4082 53.4375 39.1875 53.4375ZM57 39.1875C57 43.9117 55.1233 48.4423 51.7828 51.7828C48.4423 55.1233 43.9117 57 39.1875 57C34.4633 57 29.9327 55.1233 26.5922 51.7828C23.2517 48.4423 21.375 43.9117 21.375 39.1875C21.375 34.4633 23.2517 29.9327 26.5922 26.5922C29.9327 23.2517 34.4633 21.375 39.1875 21.375C43.9117 21.375 48.4423 23.2517 51.7828 26.5922C55.1233 29.9327 57 34.4633 57 39.1875Z" fill="url(#paint0_diamond_1531_719)"/>
<path d="M33.6228 42.5505C33.7903 44.6738 35.4682 46.3268 38.4785 46.5263V48.0938H39.8144V46.5156C42.9316 46.2983 44.7521 44.631 44.7521 42.2156C44.7521 40.014 43.3627 38.8811 40.8689 38.2969L39.8144 38.0475V33.7725C41.1539 33.9257 42.0018 34.656 42.2049 35.6678H44.549C44.3816 33.6193 42.6253 32.0198 39.8144 31.8452V30.2812H38.4785V31.8844C35.8173 32.1444 34.0076 33.744 34.0076 36.0097C34.0076 38.0119 35.3542 39.2872 37.595 39.8074L38.4785 40.0247V44.5562C37.1105 44.3496 36.2021 43.5943 35.999 42.5505H33.6193H33.6228ZM38.4678 37.7269C37.1533 37.4241 36.4408 36.8006 36.4408 35.8672C36.4408 34.8199 37.2103 34.0361 38.4785 33.8081V37.7269H38.4678ZM40.0068 40.3845C41.6064 40.755 42.3403 41.3535 42.3403 42.4116C42.3403 43.6192 41.4247 44.4458 39.8144 44.5989V40.3418L40.0068 40.3845Z" fill="url(#paint1_diamond_1531_719)"/>
<path d="M3.5625 0C2.61767 0 1.71153 0.375334 1.04343 1.04343C0.375334 1.71153 0 2.61767 0 3.5625L0 32.0625C0 33.0073 0.375334 33.9135 1.04343 34.5816C1.71153 35.2497 2.61767 35.625 3.5625 35.625H18.1082C18.3148 34.3995 18.6248 33.2096 19.0273 32.0625H10.6875C10.6875 30.1728 9.93683 28.3606 8.60064 27.0244C7.26444 25.6882 5.45217 24.9375 3.5625 24.9375V10.6875C5.45217 10.6875 7.26444 9.93683 8.60064 8.60064C9.93683 7.26444 10.6875 5.45217 10.6875 3.5625H46.3125C46.3125 5.45217 47.0632 7.26444 48.3994 8.60064C49.7356 9.93683 51.5478 10.6875 53.4375 10.6875V23.256C54.7912 24.4672 55.9918 25.8495 57 27.3671V3.5625C57 2.61767 56.6247 1.71153 55.9566 1.04343C55.2885 0.375334 54.3823 0 53.4375 0L3.5625 0Z" fill="url(#paint2_diamond_1531_719)"/>
<path d="M35.6179 18.1079L35.625 17.8122C35.6243 16.5852 35.3067 15.3792 34.7031 14.311C34.0994 13.2428 33.2302 12.3486 32.1795 11.715C31.1288 11.0814 29.9323 10.7298 28.7059 10.6944C27.4794 10.6589 26.2646 10.9408 25.1791 11.5127C24.0935 12.0846 23.1741 12.9271 22.5098 13.9586C21.8454 14.9902 21.4587 16.1758 21.3871 17.4006C21.3155 18.6255 21.5615 19.8481 22.1011 20.95C22.6407 22.0519 23.4557 22.9958 24.4673 23.6903C27.5444 20.7593 31.4275 18.8153 35.6179 18.1079Z" fill="url(#paint3_diamond_1531_719)"/>
<defs>
<radialGradient id="paint0_diamond_1531_719" cx="0" cy="0" r="1" gradientUnits="userSpaceOnUse" gradientTransform="translate(39.1875 39.1875) rotate(90) scale(17.8125)">
<stop stop-color="#DAA900" stop-opacity="0.17"/>
<stop offset="1" stop-color="#DAA900"/>
</radialGradient>
<radialGradient id="paint1_diamond_1531_719" cx="0" cy="0" r="1" gradientUnits="userSpaceOnUse" gradientTransform="translate(39.1857 39.1875) rotate(90) scale(8.90625 5.56641)">
<stop stop-color="#DAA900" stop-opacity="0.17"/>
<stop offset="1" stop-color="#DAA900"/>
</radialGradient>
<radialGradient id="paint2_diamond_1531_719" cx="0" cy="0" r="1" gradientUnits="userSpaceOnUse" gradientTransform="translate(28.5 17.8125) rotate(90) scale(17.8125 28.5)">
<stop stop-color="#DAA900" stop-opacity="0.17"/>
<stop offset="1" stop-color="#DAA900"/>
</radialGradient>
<radialGradient id="paint3_diamond_1531_719" cx="0" cy="0" r="1" gradientUnits="userSpaceOnUse" gradientTransform="translate(28.5 17.1909) rotate(90) scale(6.49944 7.125)">
<stop stop-color="#DAA900" stop-opacity="0.17"/>
<stop offset="1" stop-color="#DAA900"/>
</radialGradient>
</defs>
</svg>
