<svg width="66" height="56" viewBox="0 0 66 56" fill="none" xmlns="http://www.w3.org/2000/svg">
<path d="M2.92282 0C2.25616 0.0769231 1.65359 0.448718 1.30744 1.02564C0.961286 1.60256 0.897183 2.30769 1.15359 2.9359L4.02539 10.1154C4.17923 10.5128 4.46129 10.859 4.80744 11.1026C5.15359 11.3462 5.58949 11.4744 6.01257 11.4744H27.551V15.7821H20.3715C16.4356 15.7821 13.1921 19.0256 13.1921 22.9615V48.8077C13.1921 52.7436 16.4356 55.9872 20.3715 55.9872H46.2177C50.1536 55.9872 53.3972 52.7436 53.3972 48.8077V22.9744C53.3972 19.0385 50.1536 15.7949 46.2177 15.7949H39.0382V11.4872H60.5767C61.0126 11.4872 61.4356 11.359 61.7818 11.1154C62.1408 10.8718 62.41 10.5256 62.5639 10.1282L65.4356 2.94872C65.6921 2.28205 65.6151 1.53846 65.2177 0.948718C64.8459 0.358974 64.1792 0 63.4741 0H3.15359C3.07667 0 2.99975 0 2.92282 0ZM6.33308 4.30769H60.2818L59.1408 7.17949H7.48693L6.33308 4.30769ZM31.8715 11.4872H34.7433V15.7949H31.8715V11.4872ZM20.3844 20.1026H46.2305C47.8587 20.1026 49.1023 21.3462 49.1023 22.9744V48.8205C49.1023 50.4487 47.8587 51.6923 46.2305 51.6923H20.3844C18.7562 51.6923 17.5126 50.4487 17.5126 48.8205V22.9744C17.5126 21.3462 18.7562 20.1026 20.3844 20.1026ZM33.3074 22.9744C26.1921 22.9744 20.3844 28.7821 20.3844 35.8974C20.3844 43.0128 26.1921 48.8205 33.3074 48.8205C40.4228 48.8205 46.2305 43.0128 46.2305 35.8974C46.2305 28.7821 40.4228 22.9744 33.3074 22.9744ZM33.3074 27.2821C38.0895 27.2821 41.9228 31.1154 41.9228 35.8974C41.9228 40.6795 38.0895 44.5128 33.3074 44.5128C28.5254 44.5128 24.6921 40.6795 24.6921 35.8974C24.6921 31.1154 28.5254 27.2821 33.3074 27.2821ZM29.4741 30.1282C28.9356 30.1923 28.4228 30.4487 28.0767 30.859C27.7177 31.2692 27.5382 31.8077 27.551 32.359C27.5767 32.9103 27.8074 33.4231 28.1921 33.8077L30.4613 36.0769C30.551 37.5769 31.7818 38.7692 33.3074 38.7692C34.8972 38.7692 36.1792 37.4872 36.1792 35.8974C36.1792 34.3846 34.9997 33.1538 33.5126 33.0513L31.2433 30.7821C30.7818 30.3077 30.128 30.0641 29.4741 30.1282Z" fill="url(#paint0_linear_1949_2961)"/>
<defs>
<linearGradient id="paint0_linear_1949_2961" x1="5.60366" y1="43.2666" x2="55.3284" y2="8.10829" gradientUnits="userSpaceOnUse">
<stop stop-color="#008CBD"/>
<stop offset="0.505208" stop-color="#008E8F"/>
<stop offset="1" stop-color="#008C64"/>
</linearGradient>
</defs>
</svg>
